lang;occurs;document
ger;395633;7135
de;42354;538
eng;28048;2400
cze;15292;215
fre;3723;908
;3613;55
bel;2652;52
dan;2604;91
ita;1500;395
en;983;145
spa;629;167
lat;562;108
fr;235;63
fra;41;26
por;27;20
it;19;15
est;13;2
es;13;2
rus;12;9
lit;9;7
la;9;3
rum;7;5
swe;7;7
dut;6;5
gre;2;2
e;2;2
ice;2;2
New Books on the RWE Homepage;2;1
Impressum;2;2
ukr;2;1
hun;1;1
tur;1;1
dee;1;1
Inhalt;1;1
der;1;1
eng.;1;1
pt;1;1
d;1;1
Inhalt des XLIII. Bandes;1;1
da;1;1
de e;1;1
oc;1;1
[Rezensionen];1;1
jpn;1;1
Culture, leisure, sports;1;1
dr;1;1
